DataSHIELD Workshop – DataSHIELD Workshop
…
As you may have noticed, some operations which are more straightforward in R can be more complicated in datashield. To help with this, the dsHelper package allows you to do some common operations in fewer lines of code. DsHelper is an entirely serverside package - it contains only clientside functions which call DataSHIELD functions serverside.

We have seen datashield has a range of functions to retrieve statistics, but is limited in that (i) you need to use different functions for different statistics, (ii) you can only get stats for one variable at a time. dh.GetStats returns many useful stats in a tibble, and allows you to retrieve stats for multiple variables at a time.

neat_stats <- dh.getStats(
    df = "D",
  vars = c("LAB_TSC", "LAB_TRIG", "LAB_HDL", "LAB_GLUC_ADJUSTED", 
           "PM_BMI_CONTINUOUS", "DIS_CVA", "MEDI_LPD", "DIS_DIAB", "DIS_AMI", 
           "GENDER", "PM_BMI_CATEGORICAL"))
           
neat_stats

$categorical
# A tibble: 64 × 10
   variable cohort   category value cohort_n valid_n missing_n perc_valid
   <chr>    <chr>    <fct>    <int>    <int>   <int>     <int>      <dbl>
 1 DIS_CVA  combined 0         9365     9379    9379         0      99.8 
 2 DIS_CVA  combined 1           14     9379    9379         0       0.15
 3 DIS_CVA  combined <NA>         0     9379      NA        NA      NA   
 4 DIS_DIAB combined 0         9233     9379    9379         0      98.4 
 5 DIS_DIAB combined 1          146     9379    9379         0       1.56
 6 DIS_DIAB combined <NA>         0     9379      NA        NA      NA   
 7 GENDER   combined 0         4768     9379    9379         0      50.8 
 8 GENDER   combined 1         4611     9379    9379         0      49.2 
 9 GENDER   combined <NA>         0     9379      NA        NA      NA   
10 MEDI_LPD combined 0         9203     9379    9379         0      98.1 
# ℹ 54 more rows
# ℹ 2 more variables: perc_missing <dbl>, perc_total <dbl>
…
